年度,学期,授業コード,科目,学籍番号,学生氏名,出席率,異動,出席回数,欠席回数,遅刻回数,早退回数,公欠回数,2018/04/12,2018/04/19,2018/04/26,2018/05/10,2018/05/17,2018/05/21,2018/05/24,2018/05/31,2018/06/07,2018/06/14,2018/06/21,2018/06/28,2018/07/05,2018/07/12,2018/07/19,2018/07/26
,,,,,,,,,,,,,木曜1限,木曜1限,木曜1限,木曜1限,木曜1限,月曜1限,木曜1限,木曜1限,木曜1限,木曜1限,木曜1限,木曜1限,木曜1限,木曜1限,木曜1限,木曜1限
,,,,,,,,,,,,,授業,授業,授業,授業,授業,補講,授業,授業,授業,授業,授業,授業,授業,授業,授業,授業
2018,前期,10007,英語コミュニケーションI,181115051,相沢　佳子（アイザワ　ヨシコ）,79％,,11,3,0,0,1,出,出,出,休,欠,出,欠,出,公,出,欠,出,出,出,出,出
2018,前期,10007,英語コミュニケーションI,181116041,青木　幸雄（アオキ　ユキオ）,0％,,0,14,0,0,1,欠,欠,欠,休,欠,欠,欠,欠,公,欠,欠,欠,欠,欠,欠,欠
2018,前期,10007,英語コミュニケーションI,181117022,芥川　仁（アクタガワ　ジン）,100％,,15,0,0,0,0,出,出,出,休,出,出,出,出,出,出,出,出,出,出,出,出
2018,前期,10007,英語コミュニケーションI,181117052,雨宮　処凛（アマミヤ　カリン）,93％,,14,0,0,0,0,出,出,出,休,出,出,出,出,出,出,,出,出,出,出,出
2018,前期,10007,英語コミュニケーションI,181117067,新井　貴之（アライ　タカユキ）,86％,,10,2,2,0,1,出,出,出,休,出,出,出,欠,公,出,出,出,欠,出,遅,遅
2018,前期,10007,英語コミュニケーションI,181117089,荒畑　寒村（アラハタ　サンソン）,100％,,15,0,0,0,0,出,出,出,休,出,出,出,出,出,出,出,出,出,出,出,出
2018,前期,10007,英語コミュニケーションI,181117094,粟飯原　文子（アリハラシ　フミコ）,100％,,15,0,0,0,0,出,出,出,休,出,出,出,出,出,出,出,出,出,出,出,出
2018,前期,10007,英語コミュニケーションI,181118001,安藤　昌益（アンドウ　ショウエキ）,100％,,15,0,0,0,0,出,出,出,休,出,出,出,出,出,出,出,出,出,出,出,出
2018,前期,10007,英語コミュニケーションI,181118002,石牟礼　道子（イシムレ　ミチコ）,100％,,15,0,0,0,0,出,出,出,休,出,出,出,出,出,出,出,出,出,出,出,出
2018,前期,10007,英語コミュニケーションI,181118003,井上　ひさし（イノウエ　ヒサシ）,93％,,14,1,0,0,0,出,出,出,休,出,出,出,出,出,欠,出,出,出,出,出,出
2018,前期,10007,英語コミュニケーションI,181118004,宇井　純（ウイ　ジュン）,87％,,13,2,0,0,0,出,出,出,休,出,出,出,出,出,欠,欠,出,出,出,出,出
2018,前期,10007,英語コミュニケーションI,181118005,上野　登（ウエノ　ノボル）,93％,,14,1,0,0,0,出,出,出,休,出,出,出,出,出,欠,出,出,出,出,出,出
2018,前期,10007,英語コミュニケーションI,181118006,上野　英信（ウエノ　ヒデノブ）,100％,,15,0,0,0,0,出,出,出,休,出,出,出,出,出,出,出,出,出,出,出,出
2018,前期,10007,英語コミュニケーションI,181118007,宇都宮　健児（ウトミヤ　ケンジ）,100％,,14,0,1,0,0,出,出,出,休,出,出,出,出,出,出,出,出,出,出,出,遅
2018,前期,10007,英語コミュニケーションI,181118008,江口　幹（エグチ　カン）,100％,,15,0,0,0,0,出,出,出,休,出,出,出,出,出,出,出,出,出,出,出,出
2018,前期,10007,英語コミュニケーションI,181118009,枝廣　淳子（エダヒロ　ジュンコ）,93％,,14,1,0,0,0,出,出,出,休,出,出,出,出,出,欠,出,出,出,出,出,出
2018,前期,10007,英語コミュニケーションI,181118010,大江　健三郎（オオエ　ケンザブロウ）,93％,,14,1,0,0,0,出,出,欠,休,出,出,出,出,出,出,出,出,出,出,出,出
2018,前期,10007,英語コミュニケーションI,181118011,大木　敦雄（オオキ　アツオ）,100％,,15,0,0,0,0,出,出,出,休,出,出,出,出,出,出,出,出,出,出,出,出
2018,前期,10007,英語コミュニケーションI,181118012,大杉　栄（オオスギ　サカエ）,100％,,15,0,0,0,0,出,出,出,休,出,出,出,出,出,出,出,出,出,出,出,出
2018,前期,10007,英語コミュニケーションI,181118013,大竹　智也（オオタケ　テツヤ）,87％,,13,2,0,0,0,出,出,出,休,出,出,出,出,出,欠,出,出,出,出,欠,出
2018,前期,10007,英語コミュニケーションI,181118014,大橋　真也（オオハシ　シンヤ）,100％,,13,0,0,0,2,出,出,出,休,公,公,出,出,出,出,出,出,出,出,出,出
2018,前期,10007,英語コミュニケーションI,181118015,緒方　正人（オガタ　マサト）,93％,,14,1,0,0,0,出,出,出,休,出,出,出,出,出,出,出,出,出,欠,出,出
2018,前期,10007,英語コミュニケーションI,181118016,落合　恵子（オチアイ　ケイコ）,100％,,15,0,0,0,0,出,出,出,休,出,出,出,出,出,出,出,出,出,出,出,出
2018,前期,10007,英語コミュニケーションI,181118017,片桐　ユズル（カタギリ　ユズル）,100％,,15,0,0,0,0,出,出,出,休,出,出,出,出,出,出,出,出,出,出,出,出
2018,前期,10007,英語コミュニケーションI,181118018,金子　みすず（カネコ　ミスズ）,93％,,13,1,1,0,0,遅,出,出,休,欠,出,出,出,出,出,出,出,出,出,出,出
2018,前期,10007,英語コミュニケーションI,181118019,金子　祐介（カネコ　ユウスケ）,93％,,14,1,0,0,0,出,出,出,休,出,出,出,出,出,出,出,出,出,出,欠,出
2018,前期,10007,英語コミュニケーションI,181118020,川合　史朗（カワアイ　シロウ）,100％,,15,0,0,0,0,出,出,出,休,出,出,出,出,出,出,出,出,出,出,出,出
2018,前期,10007,英語コミュニケーションI,181118021,川原　一之（カワハラ　カズユキ）,93％,,14,1,0,0,0,出,出,出,休,出,出,出,出,出,欠,出,出,出,出,出,出
2018,前期,10007,英語コミュニケーションI,181118022,川本　輝夫（カワモト　テルオ）,93％,,14,1,0,0,0,出,出,出,休,出,出,出,出,出,出,出,出,欠,出,出,出
2018,前期,10007,英語コミュニケーションI,181118023,管　謨業（カン　ボウギョウ）,93％,,14,1,0,0,0,出,出,出,休,出,出,出,出,出,出,出,出,出,出,出,欠
2018,前期,10007,英語コミュニケーションI,181118024,李　京海（キ　　キョカイ）,80％,,12,3,0,0,0,出,出,欠,休,出,出,欠,出,出,出,出,出,出,出,欠,出
2018,前期,10007,英語コミュニケーションI,181118025,北沢　洋子（キタザワ　ヨウコ）,93％,,14,1,0,0,0,出,出,出,休,出,欠,出,出,出,出,出,出,出,出,出,出
2018,前期,10007,英語コミュニケーションI,181118026,木下　是雄（キノシタ　テルオ）,87％,,13,2,0,0,0,出,欠,欠,休,出,出,出,出,出,出,出,出,出,出,出,出
2018,前期,10007,英語コミュニケーションI,181118027,霧野　クミ（キリノ　クミ）,87％,,13,2,0,0,0,出,出,出,休,出,出,出,出,出,出,出,欠,欠,出,出,出
2018,前期,10007,英語コミュニケーションI,181118028,金　明哲（キン　ミョンチョル）,93％,,14,1,0,0,0,出,出,出,休,出,出,出,出,出,出,出,出,欠,出,出,出
2018,前期,10007,英語コミュニケーションI,181118029,工藤　惺文（クドウ　セイフミ）,93％,,14,1,0,0,0,出,出,出,休,出,出,出,出,出,出,出,出,欠,出,出,出
2018,前期,10007,英語コミュニケーションI,181118030,園城　雅之（クニナり　マサユキ）,100％,,15,0,0,0,0,出,出,出,休,出,出,出,出,出,出,出,出,出,出,出,出
2018,前期,10007,英語コミュニケーションI,181118031,久野　収（クノ　オサム）,87％,,13,2,0,0,0,出,出,出,休,欠,出,出,出,出,出,出,出,出,出,出,欠
2018,前期,10007,英語コミュニケーションI,181118032,黒川　利明（クロカワ　トシアキ）,100％,,15,0,0,0,0,出,出,出,休,出,出,出,出,出,出,出,出,出,出,出,出
2018,前期,10007,英語コミュニケーションI,181118033,桑原　史成（クワバラ　シセイ）,100％,,14,0,1,0,0,出,出,遅,休,出,出,出,出,出,出,出,出,出,出,出,出
2018,前期,10007,英語コミュニケーションI,181118034,幸徳　秋水（コウトク　　シュッスイ）,100％,,15,0,0,0,0,出,出,出,休,出,出,出,出,出,出,出,出,出,出,出,出
2018,前期,10007,英語コミュニケーションI,181118035,齋藤　正健（サイトウ　マサタケ）,93％,,14,1,0,0,0,出,出,出,休,出,出,出,出,出,出,出,出,出,出,出,欠
2018,前期,10007,英語コミュニケーションI,181118036,斎藤　美奈子（サイトウ　ミナコ）,87％,,13,2,0,0,0,出,出,出,休,出,欠,欠,出,出,出,出,出,出,出,出,出
2018,前期,10007,英語コミュニケーションI,181118037,酒井　皇治（サカイ　コウジ）,100％,,15,0,0,0,0,出,出,出,休,出,出,出,出,出,出,出,出,出,出,出,出
2018,前期,10007,英語コミュニケーションI,181118038,佐久間　智子（サクマ　　　トモコ）,100％,,15,0,0,0,0,出,出,出,休,出,出,出,出,出,出,出,出,出,出,出,出
2018,前期,10007,英語コミュニケーションI,181118039,佐高　信（サダカ　マコト）,92％,,12,1,0,0,2,出,出,出,休,出,欠,公,公,出,出,出,出,出,出,出,出
2018,前期,10007,英語コミュニケーションI,181118040,佐藤　鶴江（サトウ　ツルエ）,100％,,15,0,0,0,0,出,出,出,休,出,出,出,出,出,出,出,出,出,出,出,出
2018,前期,10007,英語コミュニケーションI,181118041,佐野　匡俊（サノ　　マサトシ）,100％,,15,0,0,0,0,出,出,出,休,出,出,出,出,出,出,出,出,出,出,出,出
2018,前期,10007,英語コミュニケーションI,181118042,椎名　誠（シイナ　　マコト）,100％,,15,0,0,0,0,出,出,出,休,出,出,出,出,出,出,出,出,出,出,出,出
2018,前期,10007,英語コミュニケーションI,181118043,白石　嘉治（シライシ　ヨシハル）,100％,,14,0,0,0,1,出,出,出,休,出,出,出,出,出,出,出,出,出,公,出,出
2018,前期,10007,英語コミュニケーションI,181118044,辛　淑玉（シン　スゴ）,87％,,13,2,0,0,0,出,出,出,休,欠,欠,出,出,出,出,出,出,出,出,出,出
2018,前期,10007,英語コミュニケーションI,181118045,杉本　栄子（スギモト　エイコ）,93％,,14,1,0,0,0,出,出,出,休,出,出,出,出,出,出,出,出,出,欠,出,出
2018,前期,10007,英語コミュニケーションI,181118046,鈴木　和也（スズキ　カズヤ）,93％,,14,1,0,0,0,出,出,出,休,欠,出,出,出,出,出,出,出,出,出,出,出
2018,前期,10007,英語コミュニケーションI,181118047,鈴木　裕子（スズキ　ユウコ）,87％,,13,2,0,0,0,出,出,出,休,出,出,出,出,出,出,出,欠,出,欠,出,出
2018,前期,10007,英語コミュニケーションI,181118048,Duong　Dinh　Khue（ズオン　ジン）,100％,,15,0,0,0,0,出,出,出,休,出,出,出,出,出,出,出,出,出,出,出,出
2018,前期,10007,英語コミュニケーションI,181118049,清　少納言（セイ　ショウナゴン）,100％,,15,0,0,0,0,出,出,出,休,出,出,出,出,出,出,出,出,出,出,出,出
2018,前期,10007,英語コミュニケーションI,181118050,高橋　康介（タカハシ　コウスケ）,80％,,12,3,0,0,0,出,欠,出,休,出,欠,出,出,出,出,欠,出,出,出,出,出
2018,前期,10007,英語コミュニケーションI,181118051,竹内　郁雄（タケウチ　イクオ）,80％,,11,3,1,0,0,出,出,欠,休,出,欠,出,出,出,遅,出,出,出,出,欠,出
2018,前期,10007,英語コミュニケーションI,181118052,田中　正造（タナカ　ショウゾウ）,93％,,14,1,0,0,0,出,出,出,休,出,出,欠,出,出,出,出,出,出,出,出,出
2018,前期,10007,英語コミュニケーションI,181118053,田中　優（タナカ　ユウ）,100％,,15,0,0,0,0,出,出,出,休,出,出,出,出,出,出,出,出,出,出,出,出
2018,前期,10007,英語コミュニケーションI,181118054,田中　優子（タナカ　ユウコ）,80％,,12,3,0,0,0,出,出,出,休,欠,欠,出,出,出,出,出,出,出,出,出,欠
2018,前期,10007,英語コミュニケーションI,181118055,谷川　雁（タニガワ　ガン）,100％,,15,0,0,0,0,出,出,出,休,出,出,出,出,出,出,出,出,出,出,出,出
2018,前期,10007,英語コミュニケーションI,181118056,谷崎　純一郎（タニザキ　ジュンイチロウ）,100％,,15,0,0,0,0,出,出,出,休,出,出,出,出,出,出,出,出,出,出,出,出
2018,前期,10007,英語コミュニケーションI,181118057,筑紫　哲也（チクシ　テツヤ）,93％,,13,1,0,0,1,欠,出,出,休,出,出,出,出,出,出,公,出,出,出,出,出
2018,前期,10007,英語コミュニケーションI,181118058,辻　信一（ツジ　シンイチ）,93％,,14,1,0,0,0,出,出,出,休,出,出,欠,出,出,出,出,出,出,出,出,出
2018,前期,10007,英語コミュニケーションI,181118059,富高　コユキ（トミタカ　コユキ）,80％,,12,3,0,0,0,欠,出,出,休,出,出,出,出,欠,出,出,出,出,出,欠,出
2018,前期,10007,英語コミュニケーションI,181118060,豊田　栄子（トヨタ　エイコ）,87％,,13,2,0,0,0,出,出,出,休,出,出,出,出,出,出,欠,出,出,出,出,欠
2018,前期,10007,英語コミュニケーションI,181118061,中江　兆民（ナカエ　チョウミン）,93％,,14,1,0,0,0,出,出,出,休,出,出,出,出,欠,出,出,出,出,出,出,出
2018,前期,10007,英語コミュニケーションI,181118062,中川　修治（ナカガワ　シュウジ）,100％,,15,0,0,0,0,出,出,出,休,出,出,出,出,出,出,出,出,出,出,出,出
2018,前期,10007,英語コミュニケーションI,181118063,中島　みゆき（ナカジマ　ミユキ）,87％,,13,2,0,0,0,出,出,出,休,出,欠,出,出,出,出,出,欠,出,出,出,出
2018,前期,10007,英語コミュニケーションI,181118064,中村　隆市（ナカムラ　リュウジ）,87％,,13,2,0,0,0,出,出,出,休,出,出,出,出,出,欠,出,出,出,出,出,欠
2018,前期,10007,英語コミュニケーションI,181118065,新納　浩幸（ニイロ　ヒロユキ）,80％,,12,3,0,0,0,出,出,出,休,出,出,出,出,出,欠,欠,欠,出,出,出,出
2018,前期,10007,英語コミュニケーションI,181118066,Nguyen　Hong　Ly（ニュエン　ホン　リ）,100％,,15,0,0,0,0,出,出,出,休,出,出,出,出,出,出,出,出,出,出,出,出
2018,前期,10007,英語コミュニケーションI,181118067,野田　開（ノダ　ヒラキ）,93％,,14,1,0,0,0,出,出,出,休,出,出,出,出,出,欠,出,出,出,出,出,出
2018,前期,10007,英語コミュニケーションI,181118068,野間　宏（ノマ　ヒロシ）,100％,,14,0,0,0,1,公,出,出,休,出,出,出,出,出,出,出,出,出,出,出,出
